%YAML 1.1
%TAG !u! tag:unity3d.com,2011:
--- !u!114 &11400000
MonoBehaviour:
  m_ObjectHideFlags: 0
  m_CorrespondingSourceObject: {fileID: 0}
  m_PrefabInternal: {fileID: 0}
  m_GameObject: {fileID: 0}
  m_Enabled: 1
  m_EditorHideFlags: 0
  m_Script: {fileID: 11500000, guid: 411554242f7205f4cb0a20c682e23eaa, type: 3}
  m_Name: SwayConfig_Tree
  m_EditorClassIdentifier: 
  Mass: 10
  DisplacementMax: 0.65
  Damping: 3
  MaxTimeStepMultiplier: 2
  MovementForNormalTimeStep: 5
  MovementForce: 400
  SpringForce: 300
